%YAML 1.1
%TAG !u! tag:unity3d.com,2011:
--- !u!74 &7400000
AnimationClip:
  m_ObjectHideFlags: 0
  m_PrefabParentObject: {fileID: 0}
  m_PrefabInternal: {fileID: 0}
  m_Name: Death Archer
  serializedVersion: 6
  m_Legacy: 0
  m_Compressed: 0
  m_UseHighQualityCurve: 1
  m_RotationCurves: []
  m_CompressedRotationCurves: []
  m_EulerCurves: []
  m_PositionCurves: []
  m_ScaleCurves: []
  m_FloatCurves: []
  m_PPtrCurves:
  - curve:
    - time: 0
      value: {fileID: 21300000, guid: 56bc6502efee7d64c94ed2fae37338e2, type: 3}
    - time: 0.06666667
      value: {fileID: 21300000, guid: 0c25a650cd6c98b45b7a2e9045ba998a, type: 3}
    - time: 0.13333334
      value: {fileID: 21300000, guid: 6b4fb6d43b1d65c44af8ae943315836e, type: 3}
    - time: 0.2
      value: {fileID: 21300000, guid: 3af7a2b1b0587224cbd3c15fcd905ecd, type: 3}
    - time: 0.26666668
      value: {fileID: 21300000, guid: 10cb1d31694962d48ab4f27687f8985c, type: 3}
    - time: 0.33333334
      value: {fileID: 21300000, guid: 67f87065905e4374b96a1949f0d59a31, type: 3}
    - time: 0.4
      value: {fileID: 21300000, guid: 2db6d73f9cf5fb94da4ef3c2c80a2289, type: 3}
    - time: 0.46666667
      value: {fileID: 21300000, guid: dbb868a4594e5504d9e1d82509a6ce30, type: 3}
    - time: 0.53333336
      value: {fileID: 21300000, guid: e7900c20fc84b4d489b16374e3c5f83e, type: 3}
    - time: 0.6
      value: {fileID: 21300000, guid: 051c7de7934db744cb8ccdfb925cb8ca, type: 3}
    - time: 0.6666667
      value: {fileID: 21300000, guid: 12cfb88c41222974d9edf6bada835b69, type: 3}
    - time: 0.73333335
      value: {fileID: 21300000, guid: 2d36902c4bc94a94686577d0993a31af, type: 3}
    - time: 0.8
      value: {fileID: 21300000, guid: 41121955f46992248bc9fc622ba12ac9, type: 3}
    - time: 0.8666667
      value: {fileID: 21300000, guid: f9e56f0b7950bfb4ea5a8655bd68a2a8, type: 3}
    - time: 0.93333334
      value: {fileID: 21300000, guid: 120a79cd33929c440939ef16c1476ce4, type: 3}
    attribute: m_Sprite
    path: 
    classID: 212
    script: {fileID: 0}
  m_SampleRate: 15
  m_WrapMode: 0
  m_Bounds:
    m_Center: {x: 0, y: 0, z: 0}
    m_Extent: {x: 0, y: 0, z: 0}
  m_ClipBindingConstant:
    genericBindings:
    - serializedVersion: 2
      path: 0
      attribute: 0
      script: {fileID: 0}
      typeID: 212
      customType: 23
      isPPtrCurve: 1
    pptrCurveMapping:
    - {fileID: 21300000, guid: 56bc6502efee7d64c94ed2fae37338e2, type: 3}
    - {fileID: 21300000, guid: 0c25a650cd6c98b45b7a2e9045ba998a, type: 3}
    - {fileID: 21300000, guid: 6b4fb6d43b1d65c44af8ae943315836e, type: 3}
    - {fileID: 21300000, guid: 3af7a2b1b0587224cbd3c15fcd905ecd, type: 3}
    - {fileID: 21300000, guid: 10cb1d31694962d48ab4f27687f8985c, type: 3}
    - {fileID: 21300000, guid: 67f87065905e4374b96a1949f0d59a31, type: 3}
    - {fileID: 21300000, guid: 2db6d73f9cf5fb94da4ef3c2c80a2289, type: 3}
    - {fileID: 21300000, guid: dbb868a4594e5504d9e1d82509a6ce30, type: 3}
    - {fileID: 21300000, guid: e7900c20fc84b4d489b16374e3c5f83e, type: 3}
    - {fileID: 21300000, guid: 051c7de7934db744cb8ccdfb925cb8ca, type: 3}
    - {fileID: 21300000, guid: 12cfb88c41222974d9edf6bada835b69, type: 3}
    - {fileID: 21300000, guid: 2d36902c4bc94a94686577d0993a31af, type: 3}
    - {fileID: 21300000, guid: 41121955f46992248bc9fc622ba12ac9, type: 3}
    - {fileID: 21300000, guid: f9e56f0b7950bfb4ea5a8655bd68a2a8, type: 3}
    - {fileID: 21300000, guid: 120a79cd33929c440939ef16c1476ce4, type: 3}
  m_AnimationClipSettings:
    serializedVersion: 2
    m_AdditiveReferencePoseClip: {fileID: 0}
    m_AdditiveReferencePoseTime: 0
    m_StartTime: 0
    m_StopTime: 1
    m_OrientationOffsetY: 0
    m_Level: 0
    m_CycleOffset: 0
    m_HasAdditiveReferencePose: 0
    m_LoopTime: 0
    m_LoopBlend: 0
    m_LoopBlendOrientation: 0
    m_LoopBlendPositionY: 0
    m_LoopBlendPositionXZ: 0
    m_KeepOriginalOrientation: 0
    m_KeepOriginalPositionY: 1
    m_KeepOriginalPositionXZ: 0
    m_HeightFromFeet: 0
    m_Mirror: 0
  m_EditorCurves: []
  m_EulerEditorCurves: []
  m_HasGenericRootTransform: 0
  m_HasMotionFloatCurves: 0
  m_GenerateMotionCurves: 0
  m_Events: []
