%YAML 1.1
%TAG !u! tag:unity3d.com,2011:
--- !u!74 &7400000
AnimationClip:
  m_ObjectHideFlags: 0
  m_PrefabParentObject: {fileID: 0}
  m_PrefabInternal: {fileID: 0}
  m_Name: Hit Archer
  serializedVersion: 6
  m_Legacy: 0
  m_Compressed: 0
  m_UseHighQualityCurve: 1
  m_RotationCurves: []
  m_CompressedRotationCurves: []
  m_EulerCurves: []
  m_PositionCurves: []
  m_ScaleCurves: []
  m_FloatCurves: []
  m_PPtrCurves:
  - curve:
    - time: 0
      value: {fileID: 21300000, guid: fb79b1496dbe9d745a959b87353fd3ad, type: 3}
    - time: 0.06666667
      value: {fileID: 21300000, guid: 80051ac073d416844a9a56b6de0b40f2, type: 3}
    - time: 0.13333334
      value: {fileID: 21300000, guid: b635845f99335aa42afeff43b3dcf668, type: 3}
    - time: 0.2
      value: {fileID: 21300000, guid: 87c565eee4b5fa541879ce2c4fa91f7c, type: 3}
    - time: 0.26666668
      value: {fileID: 21300000, guid: 530e7bdfaf026a3448499bf2603086f2, type: 3}
    attribute: m_Sprite
    path: 
    classID: 212
    script: {fileID: 0}
  m_SampleRate: 15
  m_WrapMode: 0
  m_Bounds:
    m_Center: {x: 0, y: 0, z: 0}
    m_Extent: {x: 0, y: 0, z: 0}
  m_ClipBindingConstant:
    genericBindings:
    - serializedVersion: 2
      path: 0
      attribute: 0
      script: {fileID: 0}
      typeID: 212
      customType: 23
      isPPtrCurve: 1
    pptrCurveMapping:
    - {fileID: 21300000, guid: fb79b1496dbe9d745a959b87353fd3ad, type: 3}
    - {fileID: 21300000, guid: 80051ac073d416844a9a56b6de0b40f2, type: 3}
    - {fileID: 21300000, guid: b635845f99335aa42afeff43b3dcf668, type: 3}
    - {fileID: 21300000, guid: 87c565eee4b5fa541879ce2c4fa91f7c, type: 3}
    - {fileID: 21300000, guid: 530e7bdfaf026a3448499bf2603086f2, type: 3}
  m_AnimationClipSettings:
    serializedVersion: 2
    m_AdditiveReferencePoseClip: {fileID: 0}
    m_AdditiveReferencePoseTime: 0
    m_StartTime: 0
    m_StopTime: 0.33333334
    m_OrientationOffsetY: 0
    m_Level: 0
    m_CycleOffset: 0
    m_HasAdditiveReferencePose: 0
    m_LoopTime: 0
    m_LoopBlend: 0
    m_LoopBlendOrientation: 0
    m_LoopBlendPositionY: 0
    m_LoopBlendPositionXZ: 0
    m_KeepOriginalOrientation: 0
    m_KeepOriginalPositionY: 1
    m_KeepOriginalPositionXZ: 0
    m_HeightFromFeet: 0
    m_Mirror: 0
  m_EditorCurves: []
  m_EulerEditorCurves: []
  m_HasGenericRootTransform: 0
  m_HasMotionFloatCurves: 0
  m_GenerateMotionCurves: 0
  m_Events: []
