%YAML 1.1
%TAG !u! tag:unity3d.com,2011:
--- !u!74 &7400000
AnimationClip:
  m_ObjectHideFlags: 0
  m_PrefabParentObject: {fileID: 0}
  m_PrefabInternal: {fileID: 0}
  m_Name: Idle2 Archer
  serializedVersion: 6
  m_Legacy: 0
  m_Compressed: 0
  m_UseHighQualityCurve: 1
  m_RotationCurves: []
  m_CompressedRotationCurves: []
  m_EulerCurves: []
  m_PositionCurves: []
  m_ScaleCurves: []
  m_FloatCurves: []
  m_PPtrCurves:
  - curve:
    - time: 0
      value: {fileID: 21300000, guid: e9fbd5359d29526459432aa51c547206, type: 3}
    - time: 0.06666667
      value: {fileID: 21300000, guid: a1d7b595a8b59654babf768dc3f6c095, type: 3}
    - time: 0.13333334
      value: {fileID: 21300000, guid: 73e5b7812bef85142b955f6f7707ce8a, type: 3}
    - time: 0.2
      value: {fileID: 21300000, guid: 6dce9e7c655e735438099eefdb8bb6e3, type: 3}
    - time: 0.26666668
      value: {fileID: 21300000, guid: 022ba03b8cbfec14c97f693233d9d00b, type: 3}
    - time: 0.33333334
      value: {fileID: 21300000, guid: 5671a5ddef79b064e8ec0a62b10a1105, type: 3}
    - time: 0.4
      value: {fileID: 21300000, guid: d048cf653adc7e04890aabc148ff2c5e, type: 3}
    - time: 0.46666667
      value: {fileID: 21300000, guid: dc840354cb24ee94cae3d749e6b39598, type: 3}
    - time: 0.53333336
      value: {fileID: 21300000, guid: f7182e8dc65070545804d03c144b1975, type: 3}
    - time: 0.6
      value: {fileID: 21300000, guid: 4f775605813809f46ad36eda74b5c8d2, type: 3}
    - time: 0.6666667
      value: {fileID: 21300000, guid: 1a8c479bda250074ab4ff1dd03ef733e, type: 3}
    - time: 0.73333335
      value: {fileID: 21300000, guid: 91a94850b8f2709489f4bb8f61401a6c, type: 3}
    - time: 0.8
      value: {fileID: 21300000, guid: 2197795501d42f04589f6fdb32d990e1, type: 3}
    - time: 0.8666667
      value: {fileID: 21300000, guid: f16941ec39293dd43aca10e584eaed45, type: 3}
    - time: 0.93333334
      value: {fileID: 21300000, guid: 09d0896eaf43eb0498fa755d2b13c441, type: 3}
    - time: 1
      value: {fileID: 21300000, guid: 746613ba6a1ca37438ff172ea986f39f, type: 3}
    - time: 1.0666667
      value: {fileID: 21300000, guid: 014074eca7b51d84a8c6bee2b6399681, type: 3}
    - time: 1.1333333
      value: {fileID: 21300000, guid: 673b1ca112fc93549860220c65607500, type: 3}
    - time: 1.2
      value: {fileID: 21300000, guid: f1d11c0289602654a91b3e8d13d10952, type: 3}
    - time: 1.2666667
      value: {fileID: 21300000, guid: fc820135143d6d346968e29b1f149570, type: 3}
    - time: 1.3333334
      value: {fileID: 21300000, guid: 1b4d07e8497a86d4db25d5a089e5bf7f, type: 3}
    - time: 1.4
      value: {fileID: 21300000, guid: eb0f7038165907a4d9916438720db009, type: 3}
    - time: 1.4666667
      value: {fileID: 21300000, guid: 5d81662c88505fd42b4cf3ebc9369de4, type: 3}
    - time: 1.5333333
      value: {fileID: 21300000, guid: 3950836b93d7f3f4998a46c44bde7959, type: 3}
    - time: 1.6
      value: {fileID: 21300000, guid: d36c18a556558b643a193e30a552c064, type: 3}
    - time: 1.6666666
      value: {fileID: 21300000, guid: dc193443cab0b9148818baf69b6e041e, type: 3}
    - time: 1.7333333
      value: {fileID: 21300000, guid: 0009b51111d74ee4ea966d46c7f22737, type: 3}
    - time: 1.8
      value: {fileID: 21300000, guid: c14acbb2846bb2445a89c1ad6754696e, type: 3}
    - time: 1.8666667
      value: {fileID: 21300000, guid: 6656895f90f6bc54091824771bcf6cbb, type: 3}
    - time: 1.9333333
      value: {fileID: 21300000, guid: aadc72b92879a834b94603f632067320, type: 3}
    attribute: m_Sprite
    path: 
    classID: 212
    script: {fileID: 0}
  m_SampleRate: 15
  m_WrapMode: 0
  m_Bounds:
    m_Center: {x: 0, y: 0, z: 0}
    m_Extent: {x: 0, y: 0, z: 0}
  m_ClipBindingConstant:
    genericBindings:
    - serializedVersion: 2
      path: 0
      attribute: 0
      script: {fileID: 0}
      typeID: 212
      customType: 23
      isPPtrCurve: 1
    pptrCurveMapping:
    - {fileID: 21300000, guid: e9fbd5359d29526459432aa51c547206, type: 3}
    - {fileID: 21300000, guid: a1d7b595a8b59654babf768dc3f6c095, type: 3}
    - {fileID: 21300000, guid: 73e5b7812bef85142b955f6f7707ce8a, type: 3}
    - {fileID: 21300000, guid: 6dce9e7c655e735438099eefdb8bb6e3, type: 3}
    - {fileID: 21300000, guid: 022ba03b8cbfec14c97f693233d9d00b, type: 3}
    - {fileID: 21300000, guid: 5671a5ddef79b064e8ec0a62b10a1105, type: 3}
    - {fileID: 21300000, guid: d048cf653adc7e04890aabc148ff2c5e, type: 3}
    - {fileID: 21300000, guid: dc840354cb24ee94cae3d749e6b39598, type: 3}
    - {fileID: 21300000, guid: f7182e8dc65070545804d03c144b1975, type: 3}
    - {fileID: 21300000, guid: 4f775605813809f46ad36eda74b5c8d2, type: 3}
    - {fileID: 21300000, guid: 1a8c479bda250074ab4ff1dd03ef733e, type: 3}
    - {fileID: 21300000, guid: 91a94850b8f2709489f4bb8f61401a6c, type: 3}
    - {fileID: 21300000, guid: 2197795501d42f04589f6fdb32d990e1, type: 3}
    - {fileID: 21300000, guid: f16941ec39293dd43aca10e584eaed45, type: 3}
    - {fileID: 21300000, guid: 09d0896eaf43eb0498fa755d2b13c441, type: 3}
    - {fileID: 21300000, guid: 746613ba6a1ca37438ff172ea986f39f, type: 3}
    - {fileID: 21300000, guid: 014074eca7b51d84a8c6bee2b6399681, type: 3}
    - {fileID: 21300000, guid: 673b1ca112fc93549860220c65607500, type: 3}
    - {fileID: 21300000, guid: f1d11c0289602654a91b3e8d13d10952, type: 3}
    - {fileID: 21300000, guid: fc820135143d6d346968e29b1f149570, type: 3}
    - {fileID: 21300000, guid: 1b4d07e8497a86d4db25d5a089e5bf7f, type: 3}
    - {fileID: 21300000, guid: eb0f7038165907a4d9916438720db009, type: 3}
    - {fileID: 21300000, guid: 5d81662c88505fd42b4cf3ebc9369de4, type: 3}
    - {fileID: 21300000, guid: 3950836b93d7f3f4998a46c44bde7959, type: 3}
    - {fileID: 21300000, guid: d36c18a556558b643a193e30a552c064, type: 3}
    - {fileID: 21300000, guid: dc193443cab0b9148818baf69b6e041e, type: 3}
    - {fileID: 21300000, guid: 0009b51111d74ee4ea966d46c7f22737, type: 3}
    - {fileID: 21300000, guid: c14acbb2846bb2445a89c1ad6754696e, type: 3}
    - {fileID: 21300000, guid: 6656895f90f6bc54091824771bcf6cbb, type: 3}
    - {fileID: 21300000, guid: aadc72b92879a834b94603f632067320, type: 3}
  m_AnimationClipSettings:
    serializedVersion: 2
    m_AdditiveReferencePoseClip: {fileID: 0}
    m_AdditiveReferencePoseTime: 0
    m_StartTime: 0
    m_StopTime: 2
    m_OrientationOffsetY: 0
    m_Level: 0
    m_CycleOffset: 0
    m_HasAdditiveReferencePose: 0
    m_LoopTime: 1
    m_LoopBlend: 0
    m_LoopBlendOrientation: 0
    m_LoopBlendPositionY: 0
    m_LoopBlendPositionXZ: 0
    m_KeepOriginalOrientation: 0
    m_KeepOriginalPositionY: 1
    m_KeepOriginalPositionXZ: 0
    m_HeightFromFeet: 0
    m_Mirror: 0
  m_EditorCurves: []
  m_EulerEditorCurves: []
  m_HasGenericRootTransform: 0
  m_HasMotionFloatCurves: 0
  m_GenerateMotionCurves: 0
  m_Events: []
