%YAML 1.1
%TAG !u! tag:unity3d.com,2011:
--- !u!74 &7400000
AnimationClip:
  m_ObjectHideFlags: 0
  m_PrefabParentObject: {fileID: 0}
  m_PrefabInternal: {fileID: 0}
  m_Name: Idle
  serializedVersion: 6
  m_Legacy: 0
  m_Compressed: 0
  m_UseHighQualityCurve: 1
  m_RotationCurves: []
  m_CompressedRotationCurves: []
  m_EulerCurves: []
  m_PositionCurves: []
  m_ScaleCurves: []
  m_FloatCurves: []
  m_PPtrCurves:
  - curve:
    - time: 0
      value: {fileID: 21300000, guid: 40d52291d0342dc4786432e8b8bbf6c8, type: 3}
    - time: 0.083333336
      value: {fileID: 21300000, guid: 9cc5c8680e436304f9e5224f95434540, type: 3}
    - time: 0.16666667
      value: {fileID: 21300000, guid: 597e1f00c2b16e548a56d530c18b093a, type: 3}
    - time: 0.25
      value: {fileID: 21300000, guid: 318701fbdc278c643b88b191e733b526, type: 3}
    - time: 0.33333334
      value: {fileID: 21300000, guid: 98b34c6e7f08211409da6f1cf36977ea, type: 3}
    - time: 0.41666666
      value: {fileID: 21300000, guid: ec82a8da2a335a0448b86f2ec72f2112, type: 3}
    - time: 0.5
      value: {fileID: 21300000, guid: 76770490d9254ab47b42e9046a21db90, type: 3}
    - time: 0.5833333
      value: {fileID: 21300000, guid: c7ef5da9c6248c6468bee3f462cf89b9, type: 3}
    - time: 0.6666667
      value: {fileID: 21300000, guid: 33e4f890f00bb464a89b8eaf17a579a8, type: 3}
    - time: 0.75
      value: {fileID: 21300000, guid: 105698df84633c94489687218bf5d44d, type: 3}
    attribute: m_Sprite
    path: 
    classID: 212
    script: {fileID: 0}
  m_SampleRate: 12
  m_WrapMode: 0
  m_Bounds:
    m_Center: {x: 0, y: 0, z: 0}
    m_Extent: {x: 0, y: 0, z: 0}
  m_ClipBindingConstant:
    genericBindings:
    - serializedVersion: 2
      path: 0
      attribute: 0
      script: {fileID: 0}
      typeID: 212
      customType: 23
      isPPtrCurve: 1
    pptrCurveMapping:
    - {fileID: 21300000, guid: 40d52291d0342dc4786432e8b8bbf6c8, type: 3}
    - {fileID: 21300000, guid: 9cc5c8680e436304f9e5224f95434540, type: 3}
    - {fileID: 21300000, guid: 597e1f00c2b16e548a56d530c18b093a, type: 3}
    - {fileID: 21300000, guid: 318701fbdc278c643b88b191e733b526, type: 3}
    - {fileID: 21300000, guid: 98b34c6e7f08211409da6f1cf36977ea, type: 3}
    - {fileID: 21300000, guid: ec82a8da2a335a0448b86f2ec72f2112, type: 3}
    - {fileID: 21300000, guid: 76770490d9254ab47b42e9046a21db90, type: 3}
    - {fileID: 21300000, guid: c7ef5da9c6248c6468bee3f462cf89b9, type: 3}
    - {fileID: 21300000, guid: 33e4f890f00bb464a89b8eaf17a579a8, type: 3}
    - {fileID: 21300000, guid: 105698df84633c94489687218bf5d44d, type: 3}
  m_AnimationClipSettings:
    serializedVersion: 2
    m_AdditiveReferencePoseClip: {fileID: 0}
    m_AdditiveReferencePoseTime: 0
    m_StartTime: 0
    m_StopTime: 0.8333333
    m_OrientationOffsetY: 0
    m_Level: 0
    m_CycleOffset: 0
    m_HasAdditiveReferencePose: 0
    m_LoopTime: 1
    m_LoopBlend: 0
    m_LoopBlendOrientation: 0
    m_LoopBlendPositionY: 0
    m_LoopBlendPositionXZ: 0
    m_KeepOriginalOrientation: 0
    m_KeepOriginalPositionY: 1
    m_KeepOriginalPositionXZ: 0
    m_HeightFromFeet: 0
    m_Mirror: 0
  m_EditorCurves: []
  m_EulerEditorCurves: []
  m_HasGenericRootTransform: 0
  m_HasMotionFloatCurves: 0
  m_GenerateMotionCurves: 0
  m_Events: []
