%YAML 1.1
%TAG !u! tag:unity3d.com,2011:
--- !u!74 &7400000
AnimationClip:
  m_ObjectHideFlags: 0
  m_PrefabParentObject: {fileID: 0}
  m_PrefabInternal: {fileID: 0}
  m_Name: Walk
  serializedVersion: 6
  m_Legacy: 0
  m_Compressed: 0
  m_UseHighQualityCurve: 1
  m_RotationCurves: []
  m_CompressedRotationCurves: []
  m_EulerCurves: []
  m_PositionCurves: []
  m_ScaleCurves: []
  m_FloatCurves: []
  m_PPtrCurves:
  - curve:
    - time: 0
      value: {fileID: 21300000, guid: 177451b935272eb4dbbacc44eac4320c, type: 3}
    - time: 0.083333336
      value: {fileID: 21300000, guid: d0fd20dafa6ea9a4fba3234aeb73971c, type: 3}
    - time: 0.16666667
      value: {fileID: 21300000, guid: 6e90dcf0000a6ca44beb093cf8db7f5a, type: 3}
    - time: 0.25
      value: {fileID: 21300000, guid: e42c5516fbbbd8140bd604437247fdd9, type: 3}
    - time: 0.33333334
      value: {fileID: 21300000, guid: 6e45ba289ab0e1f48b6e3d334b4d9b6d, type: 3}
    - time: 0.41666666
      value: {fileID: 21300000, guid: 5ff341a1ba88a144fae080cb7b98fc50, type: 3}
    - time: 0.5
      value: {fileID: 21300000, guid: c5ec4fbd90585744f8c692c0a06b5d26, type: 3}
    - time: 0.5833333
      value: {fileID: 21300000, guid: 01f73192d4a9f0e46b4c45f3f763d92c, type: 3}
    - time: 0.6666667
      value: {fileID: 21300000, guid: f72b1c2b97a47e042b0dd32afe7cd54d, type: 3}
    - time: 0.75
      value: {fileID: 21300000, guid: 490c765bd095e794aaff87a408b86018, type: 3}
    attribute: m_Sprite
    path: 
    classID: 212
    script: {fileID: 0}
  m_SampleRate: 12
  m_WrapMode: 0
  m_Bounds:
    m_Center: {x: 0, y: 0, z: 0}
    m_Extent: {x: 0, y: 0, z: 0}
  m_ClipBindingConstant:
    genericBindings:
    - serializedVersion: 2
      path: 0
      attribute: 0
      script: {fileID: 0}
      typeID: 212
      customType: 23
      isPPtrCurve: 1
    pptrCurveMapping:
    - {fileID: 21300000, guid: 177451b935272eb4dbbacc44eac4320c, type: 3}
    - {fileID: 21300000, guid: d0fd20dafa6ea9a4fba3234aeb73971c, type: 3}
    - {fileID: 21300000, guid: 6e90dcf0000a6ca44beb093cf8db7f5a, type: 3}
    - {fileID: 21300000, guid: e42c5516fbbbd8140bd604437247fdd9, type: 3}
    - {fileID: 21300000, guid: 6e45ba289ab0e1f48b6e3d334b4d9b6d, type: 3}
    - {fileID: 21300000, guid: 5ff341a1ba88a144fae080cb7b98fc50, type: 3}
    - {fileID: 21300000, guid: c5ec4fbd90585744f8c692c0a06b5d26, type: 3}
    - {fileID: 21300000, guid: 01f73192d4a9f0e46b4c45f3f763d92c, type: 3}
    - {fileID: 21300000, guid: f72b1c2b97a47e042b0dd32afe7cd54d, type: 3}
    - {fileID: 21300000, guid: 490c765bd095e794aaff87a408b86018, type: 3}
  m_AnimationClipSettings:
    serializedVersion: 2
    m_AdditiveReferencePoseClip: {fileID: 0}
    m_AdditiveReferencePoseTime: 0
    m_StartTime: 0
    m_StopTime: 0.8333333
    m_OrientationOffsetY: 0
    m_Level: 0
    m_CycleOffset: 0
    m_HasAdditiveReferencePose: 0
    m_LoopTime: 1
    m_LoopBlend: 0
    m_LoopBlendOrientation: 0
    m_LoopBlendPositionY: 0
    m_LoopBlendPositionXZ: 0
    m_KeepOriginalOrientation: 0
    m_KeepOriginalPositionY: 1
    m_KeepOriginalPositionXZ: 0
    m_HeightFromFeet: 0
    m_Mirror: 0
  m_EditorCurves: []
  m_EulerEditorCurves: []
  m_HasGenericRootTransform: 0
  m_HasMotionFloatCurves: 0
  m_GenerateMotionCurves: 0
  m_Events: []
